<?xml version="1.0" encoding="UTF-8" standalone="no"?>
<svg
   xmlns:dc="http://purl.org/dc/elements/1.1/"
   xmlns:cc="http://creativecommons.org/ns#"
   xmlns:rdf="http://www.w3.org/1999/02/22-rdf-syntax-ns#"
   xmlns:svg="http://www.w3.org/2000/svg"
   xmlns="http://www.w3.org/2000/svg"
   width="179.25436mm"
   height="6.5286946mm"
   viewBox="0 0 179.25436 6.5286946"
   version="1.1"
   id="svg8">
  <defs
     id="defs2" />
  <metadata
     id="metadata5">
    <rdf:RDF>
      <cc:Work
         rdf:about="">
        <dc:format>image/svg+xml</dc:format>
        <dc:type
           rdf:resource="http://purl.org/dc/dcmitype/StillImage" />
        <dc:title></dc:title>
      </cc:Work>
    </rdf:RDF>
  </metadata>
  <g
     id="layer1"
     transform="translate(-2.7153759,-93.612968)">
    <path
       id="path841"
       style="fill:#000000;fill-opacity:1;stroke:#000000;stroke-width:0.19421px;stroke-linecap:butt;stroke-linejoin:miter;stroke-opacity:1"
       d="m 56.644417,94.789141 2.930269,1.1572 3.334132,-1.65559 2.931483,1.83022 2.352283,-2.40445 c 20.402296,3.13532 62.532126,2.00648 113.774966,3.16079 -51.24284,1.15431 -93.37267,0.0255 -113.774966,3.160799 l -2.352283,-2.404449 -2.931483,1.83021 -3.334132,-1.65558 -2.930269,1.1572 C 39.657551,97.189571 22.757791,97.894041 2.7202968,96.877311 22.757791,95.860581 39.657551,96.565061 56.644417,94.789141 Z" />
  </g>
</svg>
