{
    "name": "Fields",
    "description": [
        "a set of fields and their values.",
        "fields are useful to describe the climb in a slightly-standard way."
    ],
    "seeAlso": [],
    "examples": [
        {
            "value": {
                "captured from": "air (via drone)",
                "credit": "Jane Doe"
            },
            "explanation": "credit to the photographer and info about where the photo was taken from"
        }
    ]
}
