{
    "name": "Fields",
    "description": [
        "a set of fields and their values.",
        "these names describe the area."
    ],
    "seeAlso": [
        ["area", "tags"],
        ["area", "notes"]
    ],
    "examples": [
        {
            "value": {
                "orientation": "north east"
            },
            "explanation": "TODO: explain this"
        },
        {
            "value": {
                "sun": "all day"
            },
            "explanation": "TODO: explain this"
        }
    ]
}
