{
    "name": "Notes",
    "description": [
        "plain text descriptions about various aspects of the area.",
        "",
        "notes are divided into topics for easy organization",
        "and simple inclusion and exclusion in different publishing formats."
    ],
    "seeAlso": [
        ["area", "tags"],
        ["area", "fields"]
    ],
    "examples": [
        {
            "value": [{
                "topic": "elevator pitch",
                "content": "unless you love choss and poison ivy and getting lost don't bother hiking out"
            }],
            "explanation": "must be a terrible area"
        },
        {
            "value": [{
                "topic": "Elevator Pitch",
                "content": "an excellent winter climbing destination in North Carolina. The granite/gneiss here provides any style of climbing you could ask for"
            }, {
                "topic": "History",
                "content": "The first routes were established in the early 1970s ..."
            }],
            "explanation": "for Rumbling Bald in North Carolina"
        },
        {
            "value": [{
                "topic": "Elevator Pitch",
                "content": "Solid, sticky rock with all clibing over 8,000'"
            }, {
                "topic": "History",
                "content": "Developed almost entirely by Mike and Tommy Caldwell [...]"
            }, {
                "topic": "Approach",
                "content": "expect many turns: from the town of Drake, [...]"
            }],
            "explanation": "The Monastery in Colorado"
        }
    ]
}
