{
    "name": "Notes",
    "description": [
        "plain text descriptions about various aspects of the climb.",
        "",
        "notes are divided into topics for easy organization",
        "and simple inclusion and exclusion in different publishing formats."
    ],
    "seeAlso": [],
    "examples": [
        {
            "value": [{
                "topic": "elevator pitch",
                "content": "unless you love unpleasant choss, don't climb it"
            }],
            "explanation": "must be a terrible climb"
        },
        {
            "value": [{
                "topic": "Elevator Pitch",
                "content": "non-stop quality climbing with a stellar view and a rich history makes this one of Yosemite's greatest routes"
            }, {
                "topic": "FFA Story",
                "content": "It was May 1975. John Bachar, John Long, and Ron Kauk were ..."
            }],
            "explanation": "for Astroman"
        },
        {
            "value": [{
                "topic": "Elevator Pitch",
                "content": "a beautiful roof crack"
            }, {
                "topic": "Approach",
                "content": "this boulder is hard to find and looks tiny from the front ... "
            }],
            "explanation": "an imaginary boulder"
        }
    ]
}
