{
    "name": "Description",
    "description": [
        "The description should provide a concise overview that whould be relevant to someone using the approach:",
        "",
        "- is it a trail, access road, paved street, or something else?",
        "- what quality is the trail in?",
        "- it the approach quality unpredictable, e.g., does it wash out in heavy rain? does it get overgrown in the summer?",
        "- other noteworthy features..."
    ],
    "seeAlso": [
        ["parking", "location"]
    ],
    "examples": [
        {
            "value": "don't even bother from May through August, the \"trail\" is just thick jungle"
        }
    ]
}
